{ "code": 100,
  "success":  true,
  "message": "Sucsess",
  "data": [
    {
      "Id": 1,
      "name": "تهران",
      "isActive": true,
      "province":
        {
          "Id": 1,
          "name": "تهران",
          "isActive": true
        }
    },
    {
      "Id": 2,
      "name": "کرج",
      "isActive": true,
      "province":
      {
        "Id": 2,
        "name": "البرز",
        "isActive": true
      }
    },
    {
      "Id": 3,
      "name": "اهواز",
      "isActive": false,
      "province":
      {
        "Id": 3,
        "name": "خوزستان",
        "isActive": true
      }
    },
    {
      "Id":4,
      "name": "ایزه",
      "isActive": false,
      "province":
      {
        "Id": 3,
        "name": "خوزستان",
        "isActive": true
      }
    }
  ]}



