{ "code": 100,
  "success":  true,
  "message": "Sucsess",
  "data": [
    {
      "Id": 1,
      "code":1,
      "profileCenter":{},
      "codeForm": {
        "Id": 1,
        "code": "111",
        "name": "کیبورد مانیتور و کیس",
        "unit": {
          "Id": 2,
          "name": "گرم",
          "summery":"g",
          "type":0,
          "isActive": true
        },
        "insociable": {
          "Id": 3,
          "name": "گروه سوم",
          "code": "C",
          "isActive": false
        },
        "state":{
          "Id": 13,
          "name": "جامد",
          "code": 1,
          "isActive": true},
        "maxWeight":20,
        "maxTime":30,
        "isActive": true,
        "container":[
          {
            "Id": 2,
            "code": "B",
            "description":"پسماند خطرناک اشتعال پذیری",
            "capacity":30,
            "isActive": true
          },
          {
            "Id": 3,
            "code": "C",
            "description":"پسماند خطرناک مظروف شدن",
            "capacity":20,
            "isActive": false
          }],
        "codeManage":[]
      },
      "profileCodeDanger":{"Id":24,"name":"رسید","Code":1},
      "profileCategory":{"Id":29,"name":"H","Code":1},
      "profileUnit":    {
        "Id": 1,
        "name": "کیلوگرم",
        "summery":"Kg",
        "type":0,
        "isActive": true

      },
      "profileMaxDensite":12,
      "profileMinDensite":24,
      "isActive": true
    },
    {
      "Id": 2,
      "code":2,
      "profileCenter":{},
      "codeForm": {
        "Id": 2,
        "code": "222",
        "name": "باطری ",
        "unit": {
          "Id": 2,
          "name": "گرم",
          "summery":"g",
          "type":0,
          "isActive": true
        },
        "insociable": {
          "Id": 3,
          "name": "گروه سوم",
          "code": "C",
          "isActive": false
        },
        "state":{
          "Id": 13,
          "name": "جامد",
          "code": 1,
          "isActive": true},
        "maxWeight":20,
        "maxTime":30,
        "isActive": true,
        "container":[
          {
            "Id": 2,
            "code": "B",
            "description":"پسماند خطرناک اشتعال پذیری",
            "capacity":30,
            "isActive": true
          },
          {
            "Id": 3,
            "code": "C",
            "description":"پسماند خطرناک مظروف شدن",
            "capacity":20,
            "isActive": false
          }],
        "codeManage":[]
      },
      "profileCodeDanger":{"Id":24,"name":"رسید","Code":1},
      "profileCategory":{"Id":29,"name":"H","Code":1},
      "profileUnit":    {
        "Id": 1,
        "name": "کیلوگرم",
        "summery":"Kg",
        "type":0,
        "isActive": true

      },
      "profileMaxDensite":12,
      "profileMinDensite":24,
      "isActive": true
    }


  ]}



