{ "code": 100,
  "success":  true,
  "message": "Sucsess",
  "data": [
    {
      "Id": 1,
      "name": "تهران",
      "isActive": true

    },
    {
      "Id": 2,
      "name": "البرز",
      "isActive": true
    },
    {
      "Id": 3,
      "name": "خوزستان",
      "isActive": false
    }
  ]}



