<?xml version="1.0" encoding="utf-8"?>
<!-- Generator: Adobe Illustrator 21.0.0, SVG Export Plug-In . SVG Version: 6.00 Build 0)  -->
<svg version="1.1" id="Layer_1" xmlns="http://www.w3.org/2000/svg" xmlns:xlink="http://www.w3.org/1999/xlink" x="0px" y="0px"
	 viewBox="0 0 68.7 68.7" enable-background="new 0 0 68.7 68.7" xml:space="preserve">
<g id="Group_984" transform="translate(-671 -407.727)">
	<g id="Group_983" transform="translate(701 427.727)">
		<g id="Group_3" transform="translate(0 0)">
			<g transform="matrix(1, 0, 0, 1, -30, -20)">
				<g id="Path_5-2" transform="translate(30 20)">
					<path fill="#FFFFFF" d="M4.3,47.7c-4.5,0-8.9-0.9-13-2.6c-4-1.7-7.5-4.1-10.6-7.1s-5.5-6.6-7.1-10.6c-1.7-4.1-2.6-8.5-2.6-13
						s0.9-8.9,2.6-13c1.7-4,4.1-7.5,7.1-10.6s6.6-5.5,10.6-7.1c4.1-1.7,8.5-2.6,13-2.6s8.9,0.9,13,2.6c4,1.7,7.5,4.1,10.6,7.1
						s5.5,6.6,7.1,10.6c1.7,4.1,2.6,8.5,2.6,13s-0.9,8.9-2.6,13c-1.7,4-4.1,7.5-7.1,10.6s-6.6,5.5-10.6,7.1
						C13.2,46.8,8.8,47.7,4.3,47.7z"/>
					<path fill="#FFFFFF" d="M4.3,46.7c4.4,0,8.6-0.9,12.6-2.5c3.9-1.6,7.3-4,10.3-6.9c3-3,5.3-6.4,6.9-10.3c1.7-4,2.5-8.2,2.5-12.6
						s-0.9-8.6-2.5-12.6c-1.6-3.9-4-7.3-6.9-10.3c-3-3-6.4-5.3-10.3-6.9c-4-1.7-8.2-2.5-12.6-2.5s-8.6,0.9-12.6,2.5
						c-3.9,1.6-7.3,4-10.3,6.9c-3,3-5.3,6.4-6.9,10.3c-1.7,4-2.5,8.2-2.5,12.6s0.9,8.6,2.5,12.6c1.6,3.9,4,7.3,6.9,10.3
						c3,3,6.4,5.3,10.3,6.9C-4.3,45.8,0,46.7,4.3,46.7 M4.3,48.7c-19,0-34.3-15.4-34.3-34.3S-14.6-20,4.3-20S38.7-4.6,38.7,14.3
						S23.3,48.7,4.3,48.7z"/>
				</g>
			</g>
			<g id="Ellipse_2" transform="translate(5.026 5.026)">
				<ellipse fill="#FFFFFF" cx="-0.7" cy="9.3" rx="29.3" ry="29.3"/>
				<ellipse fill="none" stroke="#288ED9" stroke-width="2" cx="-0.7" cy="9.3" rx="30.3" ry="30.3"/>
			</g>
			<g id="Group_1" transform="translate(25.992 41.01) rotate(-2)">
				<g id="Group_2" transform="matrix(0.999, -0.035, 0.035, 0.999, 0, 0.663)">
					<path id="Rectangle_1" fill="#288ED9" d="M-21.8-20.6l2.5,2.5c0.8,0.8,0.8,2,0,2.8l-2.5,2.5c-0.8,0.8-2,0.8-2.8,0l-2.5-2.5
						c-0.8-0.8-0.8-2,0-2.8l2.5-2.5C-23.8-21.4-22.6-21.4-21.8-20.6z"/>
					<path id="Rectangle_2" fill="#288ED9" d="M-13.5-20.6l2.5,2.5c0.8,0.8,0.8,2,0,2.8l-2.5,2.5c-0.8,0.8-2,0.8-2.8,0l-2.5-2.5
						c-0.8-0.8-0.8-2,0-2.8l2.5-2.5C-15.5-21.4-14.3-21.4-13.5-20.6z"/>
					<path id="Rectangle_3" fill="#288ED9" d="M-17.6-11.6l2.2,2.2c0.8,0.8,0.8,2,0,2.8l-2.2,2.2c-0.8,0.8-2,0.8-2.8,0l-2.2-2.2
						c-0.8-0.8-0.8-2,0-2.8l2.2-2.2C-19.7-12.4-18.4-12.4-17.6-11.6z"/>
				</g>
			</g>
		</g>
	</g>
	<path id="Path_4582" fill="#288ED9" d="M733.6,432.9c-8.8,6.7-21.6,12.1-33.5,12.4c-1.1,0-5.2-0.2-7.7-1.5
		c-5.4-2.9-5.3-9.1-5.2-10.8c0.2-5.7,2.6-12.8,5.3-18.6c0.5-0.3,1.1-0.6,1.7-0.9c-1.4,3.9-2.3,7.9-2.7,12
		c-0.5,6.7,4.6,12.5,17.4,10.1c8-1.4,15.7-4.3,22.7-8.4C732.4,429,733.1,430.9,733.6,432.9z"/>
</g>
</svg>
